{
  "Messages": [
    {
      "KeyCode": "NUMPAD1",
      "Message": "Long Live Stalweidism!"
    },
    {
      "KeyCode": "NUMPAD2",
      "Message": "The position swapper is currently broken. It will be fixed soon."
    },
    {
      "KeyCode": "NUMPAD3",
      "Message": "Please dont be rude."
    },
    {
      "KeyCode": "NUMPAD4",
      "Message": "Small advice, the 'n-word' is forbidden. Please stop it or an admin will be notified."
    },
    {
      "KeyCode": "NUMPAD5",
      "Message": "I am bird!"
    }
  ]
}